{
    "extensionDescription": {
        "message": "保護您不受「免費」、中心化的內容傳遞網路（CDN）的追蹤。",
        "description": "Protects you against tracking through CDNs (Content Delivery Networks) by redirecting to local resources."
    },
    "amountInjectedDescription": {
        "message": "安裝以來，由本機檔案所取代的 CDN 資源數量。",
        "description": "Amount injected description."
    },
    "optionsTitle": {
        "message": "選項",
        "description": "Options title"
    },
    "showIconBadgeTitle": {
        "message": "在圖示上顯示被取代的資源數量",
        "description": "Show icon badge title"
    },
    "showIconBadgeDescription": {
        "message": "在擴充套件圖示上，顯示被取代的資源數量。",
        "description": "Show icon badge description."
    },
    "blockMissingTitle": {
        "message": "封鎖缺少資源時的連線請求",
        "description": "Block requests for missing resources title"
    },
    "blockMissingDescription": {
        "message": "若本機沒有所請求的資源，就取消該請求。",
        "description": "Block requests for missing resources description."
    },
    "disablePrefetchTitle": {
        "message": "停用連結預讀功能",
        "description": "Disable prefetch title"
    },
    "disablePrefetchDescription": {
        "message": "防止發出不被允許的請求到 CDN 網路。",
        "description": "Disable prefetch description."
    },
    "stripMetadataTitle": {
        "message": "移除放行請求當中的後設資料",
        "description": "Strip metadata title"
    },
    "stripMetadataDescription": {
        "message": "清除放行的 CDN 請求當中的敏感資料，以保護隱私權。",
        "description": "Strip metadata description."
    },
    "allowlistedDomainsTitle": {
        "message": "要排除檢查的網域:",
        "description": "Deactivate LocalCDN for these domains:"
    },
    "allowlistedDomainsDescription": {
        "message": "輸入網域即可在該處停用 LocalCDN。使用分號（;）分隔多個網域。",
        "description": "Enter domains to disable LocalCDN there. Separate multiple entries with semi-colons (;)."
    },
    "advancedLabel": {
        "message": "進階",
        "description": "Advanced label"
    },
    "generateRuleSetTitle": {
        "message": "產生用於廣告攔截軟體的規則集合",
        "description": "Generate rule sets for your adblocker"
    },
    "generateRuleSetDescription": {
        "message": "如果你使用廣告攔截軟體，你可在此產生過濾規則。你須手動加入這些規則到廣告攔截軟體中。",
        "description": "In case you are using an adblocker you can generate the rules here. You have to add these rules manually in your adblocker."
    },
    "lastUpdate": {
        "message": "更新時間：",
        "description": "Last update:"
    },
    "copyRuleSet": {
        "message": "複製",
        "description": "Text of button to copy ruleset"
    },
    "loggingTitle": {
        "message": "在瀏覽器控制台中啟用日誌記錄",
        "description": "Enable logging in browser console"
    },
    "loggingDescription": {
        "message": "打開「瀏覽器主控台」以顯示缺少的資源。",
        "description": "Open \"Browser Console\" ( CTRL + SHIFT + J ) to show missing resources."
    },
    "featureBreaksWebsitesDescription": {
        "message": "此功能會讓網站無法正常運作。不要啟用此選項，除非你已準備好將所有被影響的網域手動加入白名單。",
        "description": "This feature breaks websites. Do not leave it enabled, unless you are prepared to manually add affected domains to the allow list."
    },
    "featureBreaksWebsitesButton": {
        "message": "停用",
        "description": "Disable"
    },
    "labelManipulateDOM": {
        "message": "過濾 HTML 原始碼",
        "description": "Filter HTML source code"
    },
    "labelDonate": {
        "message": "贊助",
        "description": "Donate"
    },
    "negateHtmlFilterListTitle": {
        "message": "反向 HTML 過濾器",
        "description": "Invert HTML filter"
    },
    "negateHtmlFilterListDescription": {
        "message": "開啟此選項以永遠使用 HTML 過濾器。清單中的網域將被忽略。如果關閉這個選項，則 HTML 篩選器只在清單中的網域使用。",
        "description": "Enable this option to always apply the HTML filter. The domains in the list will be ignored then. If this option is disabled, the HTML filter is only applied to domains in the list."
    },
    "negateHtmlFilterListWarning": {
        "message": "此功能可能會使網站顯示不正確。請注意 Wiki 頁面上的資訊。",
        "description": "This function can break websites. Please note the information on the Wiki page."
    },
    "htmlFilterDomainsTitleExclude": {
        "message": "不要將 HTML 過濾器套用於這些網域:",
        "description": "Do not apply HTML filter to these domains:"
    },
    "htmlFilterDomainsDescription": {
        "message": "輸入 HTML 過濾器要處理或忽略的網域。使用分號（;）分隔多個項目。",
        "description": "Enter the domains to be handled or ignored by the HTML filter. Separate multiple entries with semi-colons (;)."
    },
    "htmlFilterDomainsTitleInclude": {
        "message": "對這些網域套用 HTML 過濾器:",
        "description": "Apply HTML filter for these domains:"
    },
    "blockGoogleFontsTitle": {
        "message": "封鎖 Google Fonts",
        "description": "Block Google Fonts"
    },
    "blockGoogleFontsDescription": {
        "message": "如果「封鎖缺少資源時的連線請求」被啟用，\"fonts.googleapis.com\" 的連線請求不會被封鎖。啟用這個選項來封鎖這些請求。",
        "description": "If requests for missing resources are allowed, connections to \"fonts.googleapis.com\" are not blocked. Enable this option to block these requests."
    },
    "chooseIconStyle": {
        "message": "為 LocalCDN 選擇一個圖示",
        "description": "Choose an icon for this extension"
    },
    "internalStatisticsTitle": {
        "message": "內部統計數據",
        "description": "Internal statistics"
    },
    "internalStatisticsDescription": {
        "message": "此功能目前還在開發中。所有資料僅儲存在裝置上，不會被上傳。",
        "description": "This function is currently in an experimental stage. No data transmission. It’s all local on your device."
    },
    "headerStatistics": {
        "message": "統計",
        "description": "Statistics. The header of a statistics page."
    },
    "labelToday": {
        "message": "今天",
        "description": "Statistics view for today."
    },
    "labelPastWeek": {
        "message": "上週",
        "description": "Statistics view for past week."
    },
    "labelPastMonth": {
        "message": "上個月",
        "description": "Statistics view for past month."
    },
    "labelPastYear": {
        "message": "去年",
        "description": "Statistics view for past year."
    },
    "labelDelete": {
        "message": "刪除",
        "description": "Button to delete all statistics data."
    },
    "labelAvg": {
        "message": "平均（每天替換數量）",
        "description": "Followed by a number of average injections per day within a specific period."
    },
    "labelInjectedFrameworks": {
        "message": "被替換的框架",
        "description": "Followed by a number of injections within a specific period."
    },
    "dialogConfirmDeleteStatistics": {
        "message": "您確定要刪除統計數據嗎？",
        "description": "Are you sure you want to delete all the statistics?"
    },
    "labelDomainsAllowlistGoogleFonts": {
        "message": "這些網域獲准載入 Google Fonts。以分號（;）分隔每條記錄。",
        "description": "These domains are allowed to load Google Fonts. Separate multiple entries with semi-colons (;)."
    },
    "btnGeneral": {
        "message": "基本設定",
        "description": "Basic"
    },
    "btnAdvanced": {
        "message": "進階設定",
        "description": "Advanced"
    },
    "btnOther": {
        "message": "其他設定",
        "description": "Other"
    },
    "btnInfo": {
        "message": "資訊",
        "description": "Info"
    },
    "headerStorageType": {
        "message": "儲存類型",
        "description": "Storage type"
    },
    "labelStorageTypeLocal": {
        "message": "本地",
        "description": "Local"
    },
    "labelStorageTypeSync": {
        "message": "同步",
        "description": "Sync"
    },
    "headerImportExport": {
        "message": "匯入／匯出",
        "description": "Import/Export"
    },
    "labelExportData": {
        "message": "備份到檔案",
        "description": "Back up to file"
    },
    "labelImportData": {
        "message": "從檔案還原",
        "description": "Restore from file"
    },
    "dialogImportSuccessful": {
        "message": "匯入成功",
        "description": "Import successful"
    },
    "dialogImportFailed": {
        "message": "匯入失敗",
        "description": "Import failed"
    },
    "updateNotificationTitle": {
        "message": "",
        "description": "Notification after an update"
    },
    "updateNotificationNever": {
        "message": "",
        "description": "Never (Silent Updates)"
    },
    "updateNotificationOnlyRules": {
        "message": "",
        "description": "Only if new CDNs and rules"
    },
    "updateNotificationAlways": {
        "message": "",
        "description": "Always"
    }
}
