{
    "extensionDescription": {
        "message": "Protege contra monitorização através de entrega de conteúdo centralizado.",
        "description": "Protects you against tracking through CDNs (Content Delivery Networks) by redirecting to local resources."
    },
    "amountInjectedDescription": {
        "message": "Quantidade de injeções de recurso Content Delivery Network locais desde a instalação.",
        "description": "Amount injected description."
    },
    "optionsTitle": {
        "message": "Opções",
        "description": "Options title"
    },
    "showIconBadgeTitle": {
        "message": "Mostrar contagem de injeções no ícone",
        "description": "Show icon badge title"
    },
    "showIconBadgeDescription": {
        "message": "Mostrar a quantidade de recursos injetados no ícone da extensão.",
        "description": "Show icon badge description."
    },
    "blockMissingTitle": {
        "message": "Bloquear pedidos por falta de recursos",
        "description": "Block requests for missing resources title"
    },
    "blockMissingDescription": {
        "message": "Cancelar pedido intercetado se o recurso necessário não estiver disponível localmente.",
        "description": "Block requests for missing resources description."
    },
    "disablePrefetchTitle": {
        "message": "Desativar pré-obtenção de ligações",
        "description": "Disable prefetch title"
    },
    "disablePrefetchDescription": {
        "message": "Impedir recursos não permitidos de vazar às redes de entrega.",
        "description": "Disable prefetch description."
    },
    "stripMetadataTitle": {
        "message": "Retirar metadados dos pedidos permitidos",
        "description": "Strip metadata title"
    },
    "stripMetadataDescription": {
        "message": "Limpar dados sensíveis de recursos CDN permitidos para melhoria de privacidade.",
        "description": "Strip metadata description."
    },
    "allowlistedDomainsTitle": {
        "message": "Desativar o LocalCDN para estes domínios:",
        "description": "Deactivate LocalCDN for these domains:"
    },
    "allowlistedDomainsDescription": {
        "message": "Introduza os domínios para desativar o LocalCDN. Separe várias entradas com ponto e vírgula (;).",
        "description": "Enter domains to disable LocalCDN there. Separate multiple entries with semi-colons (;)."
    },
    "advancedLabel": {
        "message": "Avançado",
        "description": "Advanced label"
    },
    "generateRuleSetTitle": {
        "message": "Gerar conjuntos de regras para o seu adblocker",
        "description": "Generate rule sets for your adblocker"
    },
    "generateRuleSetDescription": {
        "message": "Caso esteja a usar um adblocker, pode gerar as regras aqui. Tem que adicionar essas regras ao seu adblocker manualmente.",
        "description": "In case you are using an adblocker you can generate the rules here. You have to add these rules manually in your adblocker."
    },
    "lastUpdate": {
        "message": "Última atualização:",
        "description": "Last update:"
    },
    "copyRuleSet": {
        "message": "Copiar",
        "description": "Text of button to copy ruleset"
    },
    "loggingTitle": {
        "message": "Ativar logging no console do browser",
        "description": "Enable logging in browser console"
    },
    "loggingDescription": {
        "message": "Abra \"Browser Console\" ( CTRL + SHIFT + J ) para mostrar recursos faltantes.",
        "description": "Open \"Browser Console\" ( CTRL + SHIFT + J ) to show missing resources."
    },
    "featureBreaksWebsitesDescription": {
        "message": "Esse recurso quebra sites. Não deixe ativado, a não ser que esteja preparado para adicionar manualmente os domínios afetados à lista de permissão.",
        "description": "This feature breaks websites. Do not leave it enabled, unless you are prepared to manually add affected domains to the allow list."
    },
    "featureBreaksWebsitesButton": {
        "message": "Desativar",
        "description": "Disable"
    },
    "labelManipulateDOM": {
        "message": "Filtrar código HTML",
        "description": "Filter HTML source code"
    },
    "labelDonate": {
        "message": "Doar",
        "description": "Donate"
    },
    "negateHtmlFilterListTitle": {
        "message": "Inverter filtro HTML",
        "description": "Invert HTML filter"
    },
    "negateHtmlFilterListDescription": {
        "message": "Ative essa opção para sempre aplicar o filtro HTML. Os domínios na lista serão ignorados. Se esta opção está desativada, o filtro HTML é apenas aplicado a domínios na lista.",
        "description": "Enable this option to always apply the HTML filter. The domains in the list will be ignored then. If this option is disabled, the HTML filter is only applied to domains in the list."
    },
    "negateHtmlFilterListWarning": {
        "message": "Essa função quebra sites. Por favor, olhe a informação na página da Wiki.",
        "description": "This function can break websites. Please note the information on the Wiki page."
    },
    "htmlFilterDomainsTitleExclude": {
        "message": "Não aplique o filtro HTML para estes domínios:",
        "description": "Do not apply HTML filter to these domains:"
    },
    "htmlFilterDomainsDescription": {
        "message": "Entre os domínios que irão ser usados ou ignorados pelo filtro HTML. Separe múltiplas entradas com ponto e vírgula (;).",
        "description": "Enter the domains to be handled or ignored by the HTML filter. Separate multiple entries with semi-colons (;)."
    },
    "htmlFilterDomainsTitleInclude": {
        "message": "Aplique o filtro HTML para estes domínios:",
        "description": "Apply HTML filter for these domains:"
    },
    "blockGoogleFontsTitle": {
        "message": "Bloquear Google Fonts",
        "description": "Block Google Fonts"
    },
    "blockGoogleFontsDescription": {
        "message": "Se pedidos para recursos faltantes são permitidos, conexões para \"fonts.googleapis.com\" não são bloqueadas. Ative esta opção para bloquear esses pedidos.",
        "description": "If requests for missing resources are allowed, connections to \"fonts.googleapis.com\" are not blocked. Enable this option to block these requests."
    },
    "chooseIconStyle": {
        "message": "Escolha um ícone para essa extensão",
        "description": "Choose an icon for this extension"
    },
    "internalStatisticsTitle": {
        "message": "Estatísticas internas",
        "description": "Internal statistics"
    },
    "internalStatisticsDescription": {
        "message": "Esta função está atualmente numa fase experimental. Não há transmissão de dados. É tudo local no seu aparelho.",
        "description": "This function is currently in an experimental stage. No data transmission. It’s all local on your device."
    },
    "headerStatistics": {
        "message": "Estatísticas",
        "description": "Statistics. The header of a statistics page."
    },
    "labelToday": {
        "message": "Hoje",
        "description": "Statistics view for today."
    },
    "labelPastWeek": {
        "message": "Semana passada",
        "description": "Statistics view for past week."
    },
    "labelPastMonth": {
        "message": "Último mês",
        "description": "Statistics view for past month."
    },
    "labelPastYear": {
        "message": "Ano passado",
        "description": "Statistics view for past year."
    },
    "labelDelete": {
        "message": "Apagar",
        "description": "Button to delete all statistics data."
    },
    "labelAvg": {
        "message": "Média (Substituições por dia)",
        "description": "Followed by a number of average injections per day within a specific period."
    },
    "labelInjectedFrameworks": {
        "message": "Estruturas substituídas",
        "description": "Followed by a number of injections within a specific period."
    },
    "dialogConfirmDeleteStatistics": {
        "message": "Tem certeza de que quer apagar as estatísticas?",
        "description": "Are you sure you want to delete all the statistics?"
    },
    "labelDomainsAllowlistGoogleFonts": {
        "message": "Estes domínios são permitidos para carregar Google Fonts. Separe várias entradas com ponto e vírgula (;).",
        "description": "These domains are allowed to load Google Fonts. Separate multiple entries with semi-colons (;)."
    },
    "btnGeneral": {
        "message": "Básico",
        "description": "Basic"
    },
    "btnAdvanced": {
        "message": "Avançado",
        "description": "Advanced"
    },
    "btnOther": {
        "message": "Outros",
        "description": "Other"
    },
    "btnInfo": {
        "message": "Informações",
        "description": "Info"
    },
    "headerStorageType": {
        "message": "Tipo de armazenamento",
        "description": "Storage type"
    },
    "labelStorageTypeLocal": {
        "message": "Local",
        "description": "Local"
    },
    "labelStorageTypeSync": {
        "message": "Sync",
        "description": "Sync"
    },
    "headerImportExport": {
        "message": "Importar/Exportar",
        "description": "Import/Export"
    },
    "labelExportData": {
        "message": "Fazer backup para um ficheiro",
        "description": "Back up to file"
    },
    "labelImportData": {
        "message": "Restaurar do ficheiro",
        "description": "Restore from file"
    },
    "dialogImportSuccessful": {
        "message": "Importação bem sucedida",
        "description": "Import successful"
    },
    "dialogImportFailed": {
        "message": "A importação falhou",
        "description": "Import failed"
    },
    "updateNotificationTitle": {
        "message": "",
        "description": "Notification after an update"
    },
    "updateNotificationNever": {
        "message": "",
        "description": "Never (Silent Updates)"
    },
    "updateNotificationOnlyRules": {
        "message": "",
        "description": "Only if new CDNs and rules"
    },
    "updateNotificationAlways": {
        "message": "",
        "description": "Always"
    }
}
